Lesson 5: Tidy Data and Reshaping – R and Health Sciences
…
Setup

Load the packages used in this lesson.

library(tidyverse)
library(gapminder)

Recognizing tidy vs untidy data

Let’s start with a tidy dataset you have already seen.

gapminder

# A tibble: 1,704 × 6
   country     continent  year lifeExp      pop gdpPercap
   <fct>       <fct>     <int>   <dbl>    <int>     <dbl>
 1 Afghanistan Asia       1952    28.8  8425333      779.
 2 Afghanistan Asia       1957    30.3  9240934      821.
 3 Afghanistan Asia       1962    32.0 10267083      853.
 4 Afghanistan Asia       1967    34.0 11537966      836.
 5 Afghanistan Asia       1972    36.1 13079460      740.
 6 Afghanistan Asia       1977    38.4 14880372      786.
 7 Afghanistan Asia       1982    39.9 12881816      978.
 8 Afghanistan Asia       1987    40.8 13867957      852.
 9 Afghanistan Asia       1992    41.7 16317921      649.
10 Afghanistan Asia       1997    41.8 22227415      635.
# ℹ 1,694 more rows
…
Each observation is clearly defined, making interpretation easier.

Example with Gapminder

Let’s reshape a subset of Gapminder.

gap_subset <- gapminder %>%
  filter(country %in% c("United States", "Canada")) %>%
  select(country, year, lifeExp)

gap_subset

# A tibble: 24 × 3
   country  year lifeExp
   <fct>   <int>   <dbl>
 1 Canada   1952    68.8
 2 Canada   1957    70.0
 3 Canada   1962    71.3
 4 Canada   1967    72.1
 5 Canada   1972    72.9
 6 Canada   1977    74.2
 7 Canada   1982    75.8
 8 Canada   1987    76.9
 9 Canada   1992    78.0
10 Canada   1997    78.6
# ℹ 14 more rows
…
