Lesson 11a: In-Class Activity: Hypothesis Testing Simulation – R and Health Sciences
…
set.seed(123)

group <- rep(c("Control", "Intervention"), each = 50)
outcome <- rnorm(100, mean = 50, sd = 10)

df <- tibble(group, outcome)

df

# A tibble: 100 × 2
   group   outcome
   <chr>     <dbl>
 1 Control    44.4
 2 Control    47.7
 3 Control    65.6
 4 Control    50.7
 5 Control    51.3
 6 Control    67.2
 7 Control    54.6
 8 Control    37.3
 9 Control    43.1
10 Control    45.5
# ℹ 90 more rows
…
